{
  "format": 1,
  "versions": {
    "mods2.20130818": {
      "id": "mods2",
      "api": "20130818",
      "maxMinecraftVersion": "13w01b",
      "libraryVersion": "2.4.6",
      "md5": "8409821c0e8e904200a69c6b7fd06257",
      "mods": [
        {
          "name": "__TexturePackBase",
          "className": "com.prupe.mcpatcher.mod.BaseTexturePackMod",
          "internal": true
        },
        {
          "name": "HD Textures",
          "className": "com.prupe.mcpatcher.mod.HDTexture"
        },
        {
          "name": "HD Font",
          "className": "com.prupe.mcpatcher.mod.HDFont"
        },
        {
          "name": "Better Grass",
          "className": "com.prupe.mcpatcher.mod.BetterGrass"
        },
        {
          "name": "Random Mobs",
          "className": "com.prupe.mcpatcher.mod.RandomMobs"
        },
        {
          "name": "Custom Colors",
          "className": "com.prupe.mcpatcher.mod.CustomColors"
        },
        {
          "name": "Connected Textures",
          "className": "com.prupe.mcpatcher.mod.ConnectedTextures"
        },
        {
          "name": "Better Glass",
          "className": "com.prupe.mcpatcher.mod.BetterGlass"
        },
        {
          "name": "Better Skies",
          "className": "com.prupe.mcpatcher.mod.BetterSkies"
        },
        {
          "name": "GLSL Shaders",
          "className": "com.prupe.mcpatcher.mod.GLSLShader",
          "experimental": true
        }
      ]
    },
    "mods3.20130818": {
      "id": "mods3",
      "api": "20130818",
      "maxMinecraftVersion": "13w17a",
      "libraryVersion": "3.0.5_01",
      "md5": "139622f1b82449d7b3e7c572091254e4",
      "mods": [
        {
          "name": "__TexturePackBase",
          "className": "com.prupe.mcpatcher.mod.BaseTexturePackMod",
          "internal": true
        },
        {
          "name": "Extended HD",
          "className": "com.prupe.mcpatcher.mod.ExtendedHD"
        },
        {
          "name": "HD Font",
          "className": "com.prupe.mcpatcher.mod.HDFont"
        },
        {
          "name": "Random Mobs",
          "className": "com.prupe.mcpatcher.mod.RandomMobs"
        },
        {
          "name": "Custom Colors",
          "className": "com.prupe.mcpatcher.mod.CustomColors"
        },
        {
          "name": "Connected Textures",
          "className": "com.prupe.mcpatcher.mod.ConnectedTextures"
        },
        {
          "name": "Better Glass",
          "className": "com.prupe.mcpatcher.mod.BetterGlass"
        },
        {
          "name": "Better Skies",
          "className": "com.prupe.mcpatcher.mod.BetterSkies"
        }
      ]
    }
  }
}
